{
  "photos": {
    "page": 1,
    "pages": 1369,
    "perpage": 100,
    "total": 136898,
    "photo": [
      {
        "id": "51286965301",
        "owner": "41228951@N00",
        "secret": "8b79d048ea",
        "server": "65535",
        "farm": 66,
        "title": "Wolf & Kitten",
        "ispublic": 1,
        "isfriend": 0,
        "isfamily": 0
      },
      {
        "id": "51287933150",
        "owner": "75432915@N02",
        "secret": "dbcb5acd37",
        "server": "65535",
        "farm": 66,
        "title": "Sessna : Kitten portrait : Cat portrait",
        "ispublic": 1,
        "isfriend": 0,
        "isfamily": 0
      },
      {
        "id": "51287924430",
        "owner": "75432915@N02",
        "secret": "02c6f50944",
        "server": "65535",
        "farm": 66,
        "title": "Sessna : Kitten portrait : Cat portrait",
        "ispublic": 1,
        "isfriend": 0,
        "isfamily": 0
      },
      {
        "id": "51286154367",
        "owner": "75432915@N02",
        "secret": "6eb6788aac",
        "server": "65535",
        "farm": 66,
        "title": "Sessna : Kitten portrait : Cat portrait",
        "ispublic": 1,
        "isfriend": 0,
        "isfamily": 0
      },
      {
        "id": "51286897646",
        "owner": "75432915@N02",
        "secret": "1f5faca0f4",
        "server": "65535",
        "farm": 66,
        "title": "Sessna : Kitten portrait : Cat portrait",
        "ispublic": 1,
        "isfriend": 0,
        "isfamily": 0
      },
      {
        "id": "51287908115",
        "owner": "75432915@N02",
        "secret": "b1f15a7d2e",
        "server": "65535",
        "farm": 66,
        "title": "Sessna : Kitten portrait : Cat portrait",
        "ispublic": 1,
        "isfriend": 0,
        "isfamily": 0
      },
      {
        "id": "51286868036",
        "owner": "75432915@N02",
        "secret": "1ee15dd6bd",
        "server": "65535",
        "farm": 66,
        "title": "Sirius Black and Sessna. Kittens : Cat Portrait",
        "ispublic": 1,
        "isfriend": 0,
        "isfamily": 0
      },
      {
        "id": "51287865020",
        "owner": "75432915@N02",
        "secret": "9a558048ea",
        "server": "65535",
        "farm": 66,
        "title": "Sirius Black : Kitten : Cat portrait",
        "ispublic": 1,
        "isfriend": 0,
        "isfamily": 0
      },
      {
        "id": "51286078972",
        "owner": "75432915@N02",
        "secret": "fe30009b49",
        "server": "65535",
        "farm": 66,
        "title": "Sirius Black : Kitten : Cat portrait",
        "ispublic": 1,
        "isfriend": 0,
        "isfamily": 0
      },
      {
        "id": "51286991138",
        "owner": "75432915@N02",
        "secret": "3fc472f082",
        "server": "65535",
        "farm": 66,
        "title": "Sirius Black and Sessna. Kittens : Cat Portrait",
        "ispublic": 1,
        "isfriend": 0,
        "isfamily": 0
      },
      {
        "id": "51286815811",
        "owner": "75432915@N02",
        "secret": "6c5bd45b60",
        "server": "65535",
        "farm": 66,
        "title": "Sirius Black : Kitten : Cat portrait",
        "ispublic": 1,
        "isfriend": 0,
        "isfamily": 0
      },
      {
        "id": "51286910558",
        "owner": "77654185@N07",
        "secret": "15f4b5dd34",
        "server": "65535",
        "farm": 66,
        "title": "Even a new catnip toy is not as interesting to Jimmy as what I'm up to",
        "ispublic": 1,
        "isfriend": 0,
        "isfamily": 0
      },
      {
        "id": "51287413484",
        "owner": "79458295@N04",
        "secret": "fe78fbd68a",
        "server": "65535",
        "farm": 66,
        "title": "Sleeping",
        "ispublic": 1,
        "isfriend": 0,
        "isfamily": 0
      },
      {
        "id": "51286686301",
        "owner": "9423727@N02",
        "secret": "9ff40ec156",
        "server": "65535",
        "farm": 66,
        "title": "Chatons, Juin 2021",
        "ispublic": 1,
        "isfriend": 0,
        "isfamily": 0
      },
      {
        "id": "51286858278",
        "owner": "9423727@N02",
        "secret": "8930f88637",
        "server": "65535",
        "farm": 66,
        "title": "Chatons, Juin 2021",
        "ispublic": 1,
        "isfriend": 0,
        "isfamily": 0
      },
      {
        "id": "51286858198",
        "owner": "9423727@N02",
        "secret": "336af79d6a",
        "server": "65535",
        "farm": 66,
        "title": "Chatons, Juin 2021",
        "ispublic": 1,
        "isfriend": 0,
        "isfamily": 0
      },
      {
        "id": "51285938907",
        "owner": "9423727@N02",
        "secret": "73a36fd57a",
        "server": "65535",
        "farm": 66,
        "title": "Chatons, Juin 2021",
        "ispublic": 1,
        "isfriend": 0,
        "isfamily": 0
      },
      {
        "id": "51285938792",
        "owner": "9423727@N02",
        "secret": "133489de19",
        "server": "65535",
        "farm": 66,
        "title": "Chatons, Juin 2021",
        "ispublic": 1,
        "isfriend": 0,
        "isfamily": 0
      },
      {
        "id": "51287702985",
        "owner": "9423727@N02",
        "secret": "9060a43140",
        "server": "65535",
        "farm": 66,
        "title": "Chatons, Juin 2021",
        "ispublic": 1,
        "isfriend": 0,
        "isfamily": 0
      },
      {
        "id": "51286857903",
        "owner": "9423727@N02",
        "secret": "11d2207d6b",
        "server": "65535",
        "farm": 66,
        "title": "Chatons, Juin 2021",
        "ispublic": 1,
        "isfriend": 0,
        "isfamily": 0
      },
      {
        "id": "51287407179",
        "owner": "9423727@N02",
        "secret": "605410043f",
        "server": "65535",
        "farm": 66,
        "title": "Chatons, Juin 2021",
        "ispublic": 1,
        "isfriend": 0,
        "isfamily": 0
      },
      {
        "id": "51286685746",
        "owner": "9423727@N02",
        "secret": "5bd61c8480",
        "server": "65535",
        "farm": 66,
        "title": "Chatons, Juin 2021",
        "ispublic": 1,
        "isfriend": 0,
        "isfamily": 0
      },
      {
        "id": "51286685686",
        "owner": "9423727@N02",
        "secret": "d3edcc5fec",
        "server": "65535",
        "farm": 66,
        "title": "Chatons, Juin 2021",
        "ispublic": 1,
        "isfriend": 0,
        "isfamily": 0
      },
      {
        "id": "51287403989",
        "owner": "79458295@N04",
        "secret": "cdc693b961",
        "server": "65535",
        "farm": 66,
        "title": "Jonesy",
        "ispublic": 1,
        "isfriend": 0,
        "isfamily": 0
      },
      {
        "id": "51287368274",
        "owner": "181674485@N02",
        "secret": "5cd1df25be",
        "server": "65535",
        "farm": 66,
        "title": "Study time",
        "ispublic": 1,
        "isfriend": 0,
        "isfamily": 0
      },
      {
        "id": "51287366269",
        "owner": "8780111@N03",
        "secret": "743d691538",
        "server": "65535",
        "farm": 66,
        "title": "Kitten",
        "ispublic": 1,
        "isfriend": 0,
        "isfamily": 0
      },
      {
        "id": "51287306079",
        "owner": "127753451@N07",
        "secret": "d7d14c078f",
        "server": "65535",
        "farm": 66,
        "title": "those eyes !",
        "ispublic": 1,
        "isfriend": 0,
        "isfamily": 0
      },
      {
        "id": "24205910011",
        "owner": "138073056@N07",
        "secret": "cc62f62343",
        "server": "1479",
        "farm": 2,
        "title": "Happy Gotcha Day, Wheat Ear, Tiny, Stewie and Tzenescu!",
        "ispublic": 1,
        "isfriend": 0,
        "isfamily": 0
      },
      {
        "id": "51285205312",
        "owner": "190960130@N03",
        "secret": "050c6a9f26",
        "server": "65535",
        "farm": 66,
        "title": "",
        "ispublic": 1,
        "isfriend": 0,
        "isfamily": 0
      },
      {
        "id": "51286071066",
        "owner": "49998540@N03",
        "secret": "29a6f380c8",
        "server": "65535",
        "farm": 66,
        "title": "\u3075\u3068\u3093\u306d\u3053 #\u306d\u3053 #\u732b #cat #gatto #chat #kitten",
        "ispublic": 1,
        "isfriend": 0,
        "isfamily": 0
      },
      {
        "id": "51285300887",
        "owner": "156567116@N03",
        "secret": "68f650731f",
        "server": "65535",
        "farm": 66,
        "title": "Kitten & Mike",
        "ispublic": 1,
        "isfriend": 0,
        "isfamily": 0
      },
      {
        "id": "51287066130",
        "owner": "156567116@N03",
        "secret": "c9e4e94d58",
        "server": "65535",
        "farm": 66,
        "title": "Kitten & Mike",
        "ispublic": 1,
        "isfriend": 0,
        "isfamily": 0
      },
      {
        "id": "51285259567",
        "owner": "61623396@N04",
        "secret": "5750e976c8",
        "server": "65535",
        "farm": 66,
        "title": "Chipmunk",
        "ispublic": 1,
        "isfriend": 0,
        "isfamily": 0
      },
      {
        "id": "51285249312",
        "owner": "27686425@N06",
        "secret": "d55511c63e",
        "server": "65535",
        "farm": 66,
        "title": "Discovering Ducks",
        "ispublic": 1,
        "isfriend": 0,
        "isfamily": 0
      },
      {
        "id": "51286831535",
        "owner": "23415372@N02",
        "secret": "3fd4bce6a7",
        "server": "65535",
        "farm": 66,
        "title": "Slaty Skimmer (Libellula incesta)",
        "ispublic": 1,
        "isfriend": 0,
        "isfamily": 0
      },
      {
        "id": "51284936682",
        "owner": "32468012@N00",
        "secret": "2589354893",
        "server": "65535",
        "farm": 66,
        "title": "Tom Kitten",
        "ispublic": 1,
        "isfriend": 0,
        "isfamily": 0
      },
      {
        "id": "51285775698",
        "owner": "51388540@N05",
        "secret": "054f61093b",
        "server": "65535",
        "farm": 66,
        "title": "10430 - A tail!",
        "ispublic": 1,
        "isfriend": 0,
        "isfamily": 0
      },
      {
        "id": "51285504771",
        "owner": "193378074@N04",
        "secret": "e57f24e93d",
        "server": "65535",
        "farm": 66,
        "title": "Kitten in hiding",
        "ispublic": 1,
        "isfriend": 0,
        "isfamily": 0
      },
      {
        "id": "51285673338",
        "owner": "193378074@N04",
        "secret": "1207ea85a9",
        "server": "65535",
        "farm": 66,
        "title": "Kitten on the prowl",
        "ispublic": 1,
        "isfriend": 0,
        "isfamily": 0
      },
      {
        "id": "51285504156",
        "owner": "193378074@N04",
        "secret": "f2c0cc043e",
        "server": "65535",
        "farm": 66,
        "title": "Hello there!",
        "ispublic": 1,
        "isfriend": 0,
        "isfamily": 0
      },
      {
        "id": "51284709882",
        "owner": "149440349@N04",
        "secret": "55a6a7932a",
        "server": "65535",
        "farm": 66,
        "title": "Mirror Fun",
        "ispublic": 1,
        "isfriend": 0,
        "isfamily": 0
      },
      {
        "id": "51284679242",
        "owner": "60477322@N00",
        "secret": "4a18494463",
        "server": "65535",
        "farm": 66,
        "title": "basket love",
        "ispublic": 1,
        "isfriend": 0,
        "isfamily": 0
      },
      {
        "id": "51285589888",
        "owner": "60477322@N00",
        "secret": "4d80884918",
        "server": "65535",
        "farm": 66,
        "title": "napping",
        "ispublic": 1,
        "isfriend": 0,
        "isfamily": 0
      },
      {
        "id": "51286417505",
        "owner": "60477322@N00",
        "secret": "ebbb03bd44",
        "server": "65535",
        "farm": 66,
        "title": "cozy spot",
        "ispublic": 1,
        "isfriend": 0,
        "isfamily": 0
      },
      {
        "id": "51284644102",
        "owner": "60477322@N00",
        "secret": "61970c3e0d",
        "server": "65535",
        "farm": 66,
        "title": "summer",
        "ispublic": 1,
        "isfriend": 0,
        "isfamily": 0
      },
      {
        "id": "51286112824",
        "owner": "60477322@N00",
        "secret": "af337a1249",
        "server": "65535",
        "farm": 66,
        "title": "evening walk",
        "ispublic": 1,
        "isfriend": 0,
        "isfamily": 0
      },
      {
        "id": "51284639622",
        "owner": "60477322@N00",
        "secret": "5ba0be0e22",
        "server": "65535",
        "farm": 66,
        "title": "afternoon sleep",
        "ispublic": 1,
        "isfriend": 0,
        "isfamily": 0
      },
      {
        "id": "51286107869",
        "owner": "60477322@N00",
        "secret": "a3f7f8c50d",
        "server": "65535",
        "farm": 66,
        "title": "sleepy",
        "ispublic": 1,
        "isfriend": 0,
        "isfamily": 0
      },
      {
        "id": "51284550322",
        "owner": "75432915@N02",
        "secret": "5ded6fbb5e",
        "server": "65535",
        "farm": 66,
        "title": "Sirius Black : Kitten : Cat Portrait",
        "ispublic": 1,
        "isfriend": 0,
        "isfamily": 0
      },
      {
        "id": "51286315360",
        "owner": "75432915@N02",
        "secret": "42662ff07d",
        "server": "65535",
        "farm": 66,
        "title": "Sirius Black : Kitten : Cat Portrait",
        "ispublic": 1,
        "isfriend": 0,
        "isfamily": 0
      },
      {
        "id": "51286011709",
        "owner": "75432915@N02",
        "secret": "ffa68cc1a6",
        "server": "65535",
        "farm": 66,
        "title": "Sirius Black : Kitten : Cat Portrait",
        "ispublic": 1,
        "isfriend": 0,
        "isfamily": 0
      },
      {
        "id": "51285279131",
        "owner": "75432915@N02",
        "secret": "9bb9ab8e17",
        "server": "65535",
        "farm": 66,
        "title": "Sirius Black : Kitten : Cat Portrait",
        "ispublic": 1,
        "isfriend": 0,
        "isfamily": 0
      },
      {
        "id": "51286295195",
        "owner": "75432915@N02",
        "secret": "85960debae",
        "server": "65535",
        "farm": 66,
        "title": "Sirius Black : Kitten : Cat Portrait",
        "ispublic": 1,
        "isfriend": 0,
        "isfamily": 0
      },
      {
        "id": "51285982489",
        "owner": "75432915@N02",
        "secret": "f220861d14",
        "server": "65535",
        "farm": 66,
        "title": "Sirius Black : Kitten : Cat Portrait",
        "ispublic": 1,
        "isfriend": 0,
        "isfamily": 0
      },
      {
        "id": "51285424468",
        "owner": "75432915@N02",
        "secret": "4bceec9a2d",
        "server": "65535",
        "farm": 66,
        "title": "Sirius Black : Kitten : Cat Portrait",
        "ispublic": 1,
        "isfriend": 0,
        "isfamily": 0
      },
      {
        "id": "51286268775",
        "owner": "75432915@N02",
        "secret": "43c209c35e",
        "server": "65535",
        "farm": 66,
        "title": "Sirius Black : Kitten : Cat Portrait",
        "ispublic": 1,
        "isfriend": 0,
        "isfamily": 0
      },
      {
        "id": "51286278255",
        "owner": "39015914@N02",
        "secret": "9d537c9393",
        "server": "65535",
        "farm": 66,
        "title": "From KeithA (USA)",
        "ispublic": 1,
        "isfriend": 0,
        "isfamily": 0
      },
      {
        "id": "51285366088",
        "owner": "192914826@N05",
        "secret": "8a5e136956",
        "server": "65535",
        "farm": 66,
        "title": "Portret",
        "ispublic": 1,
        "isfriend": 0,
        "isfamily": 0
      },
      {
        "id": "51285549259",
        "owner": "75432915@N02",
        "secret": "53273150d7",
        "server": "65535",
        "farm": 66,
        "title": "Sirius Black : Kitten cat portrait",
        "ispublic": 1,
        "isfriend": 0,
        "isfamily": 0
      },
      {
        "id": "51284079212",
        "owner": "75432915@N02",
        "secret": "6b5dc2f27e",
        "server": "65535",
        "farm": 66,
        "title": "Sirius Black : Kitten cat portrait",
        "ispublic": 1,
        "isfriend": 0,
        "isfamily": 0
      },
      {
        "id": "51284990943",
        "owner": "75432915@N02",
        "secret": "37a1013649",
        "server": "65535",
        "farm": 66,
        "title": "Sirius Black : Kitten cat portrait",
        "ispublic": 1,
        "isfriend": 0,
        "isfamily": 0
      },
      {
        "id": "51284816146",
        "owner": "75432915@N02",
        "secret": "90049677e1",
        "server": "65535",
        "farm": 66,
        "title": "Sirius Black : Kitten cat portrait",
        "ispublic": 1,
        "isfriend": 0,
        "isfamily": 0
      },
      {
        "id": "51285534174",
        "owner": "75432915@N02",
        "secret": "748453f074",
        "server": "65535",
        "farm": 66,
        "title": "Sirius Black : Kitten cat portrait",
        "ispublic": 1,
        "isfriend": 0,
        "isfamily": 0
      },
      {
        "id": "51285530074",
        "owner": "75432915@N02",
        "secret": "f478ba24b8",
        "server": "65535",
        "farm": 66,
        "title": "Sirius Black : Kitten cat portrait",
        "ispublic": 1,
        "isfriend": 0,
        "isfamily": 0
      },
      {
        "id": "51285761535",
        "owner": "34646324@N08",
        "secret": "ba187a193c",
        "server": "65535",
        "farm": 66,
        "title": "One of the tiny kittens I\u2019ve been feeding",
        "ispublic": 1,
        "isfriend": 0,
        "isfamily": 0
      },
      {
        "id": "51284879288",
        "owner": "157779872@N04",
        "secret": "8422a2980e",
        "server": "65535",
        "farm": 66,
        "title": "Your local surfer girl next door",
        "ispublic": 1,
        "isfriend": 0,
        "isfamily": 0
      },
      {
        "id": "51285662610",
        "owner": "188249224@N08",
        "secret": "43cef387e8",
        "server": "65535",
        "farm": 66,
        "title": "Charm",
        "ispublic": 1,
        "isfriend": 0,
        "isfamily": 0
      },
      {
        "id": "51285559370",
        "owner": "32895996@N02",
        "secret": "e287fc0ef6",
        "server": "65535",
        "farm": 66,
        "title": "Me and My Shadow",
        "ispublic": 1,
        "isfriend": 0,
        "isfamily": 0
      },
      {
        "id": "51285352860",
        "owner": "187683971@N02",
        "secret": "5b70342fb9",
        "server": "65535",
        "farm": 66,
        "title": "How Well Mother Cats Take Care of Their Kittens? | Cute Cats Land",
        "ispublic": 1,
        "isfriend": 0,
        "isfamily": 0
      },
      {
        "id": "51284293878",
        "owner": "190530505@N03",
        "secret": "da2dc9a6a3",
        "server": "65535",
        "farm": 66,
        "title": "Affordable Cat Clinic near you",
        "ispublic": 1,
        "isfriend": 0,
        "isfamily": 0
      },
      {
        "id": "51285092115",
        "owner": "193017604@N03",
        "secret": "71648d0a81",
        "server": "65535",
        "farm": 66,
        "title": "20210625_151121",
        "ispublic": 1,
        "isfriend": 0,
        "isfamily": 0
      },
      {
        "id": "51284794089",
        "owner": "193017604@N03",
        "secret": "bb98f935db",
        "server": "65535",
        "farm": 66,
        "title": "20210625_151520",
        "ispublic": 1,
        "isfriend": 0,
        "isfamily": 0
      },
      {
        "id": "51283322907",
        "owner": "193017604@N03",
        "secret": "5c4bc7d027",
        "server": "65535",
        "farm": 66,
        "title": "20210625_151540",
        "ispublic": 1,
        "isfriend": 0,
        "isfamily": 0
      },
      {
        "id": "51283322867",
        "owner": "193017604@N03",
        "secret": "fb2c06b28c",
        "server": "65535",
        "farm": 66,
        "title": "20210625_151600",
        "ispublic": 1,
        "isfriend": 0,
        "isfamily": 0
      },
      {
        "id": "51284793919",
        "owner": "193017604@N03",
        "secret": "b4bb052f90",
        "server": "65535",
        "farm": 66,
        "title": "20210625_151610",
        "ispublic": 1,
        "isfriend": 0,
        "isfamily": 0
      },
      {
        "id": "51285091865",
        "owner": "193017604@N03",
        "secret": "65106c4c75",
        "server": "65535",
        "farm": 66,
        "title": "20210625_151713",
        "ispublic": 1,
        "isfriend": 0,
        "isfamily": 0
      },
      {
        "id": "51284244718",
        "owner": "193017604@N03",
        "secret": "047b9e4328",
        "server": "65535",
        "farm": 66,
        "title": "Albert5",
        "ispublic": 1,
        "isfriend": 0,
        "isfamily": 0
      },
      {
        "id": "51283322587",
        "owner": "193017604@N03",
        "secret": "cdf5d45f61",
        "server": "65535",
        "farm": 66,
        "title": "Andy1",
        "ispublic": 1,
        "isfriend": 0,
        "isfamily": 0
      },
      {
        "id": "51284244483",
        "owner": "193017604@N03",
        "secret": "1b6c49c20e",
        "server": "65535",
        "farm": 66,
        "title": "Andy2",
        "ispublic": 1,
        "isfriend": 0,
        "isfamily": 0
      },
      {
        "id": "51283322277",
        "owner": "193017604@N03",
        "secret": "541bc6009d",
        "server": "65535",
        "farm": 66,
        "title": "Andy3",
        "ispublic": 1,
        "isfriend": 0,
        "isfamily": 0
      },
      {
        "id": "51283322087",
        "owner": "193017604@N03",
        "secret": "5807b2f840",
        "server": "65535",
        "farm": 66,
        "title": "Andy4",
        "ispublic": 1,
        "isfriend": 0,
        "isfamily": 0
      },
      {
        "id": "51284063731",
        "owner": "49998540@N03",
        "secret": "e632db2865",
        "server": "65535",
        "farm": 66,
        "title": "\u3086\u304b\u306b\u3054\u308d\u3093\u306e\u306d\u3053 #\u306d\u3053 #\u732b #cat #gatto #chat #kitten",
        "ispublic": 1,
        "isfriend": 0,
        "isfamily": 0
      },
      {
        "id": "51284758609",
        "owner": "32895996@N02",
        "secret": "c0622f6a39",
        "server": "65535",
        "farm": 66,
        "title": "[Zombie Kittens] Becca Boo Dress - Floral green",
        "ispublic": 1,
        "isfriend": 0,
        "isfamily": 0
      },
      {
        "id": "51284036181",
        "owner": "32895996@N02",
        "secret": "bdafc6a838",
        "server": "65535",
        "farm": 66,
        "title": "[Zombie Kittens] Becca Boo Dress - Floral multicolor",
        "ispublic": 1,
        "isfriend": 0,
        "isfamily": 0
      },
      {
        "id": "51285057525",
        "owner": "32895996@N02",
        "secret": "27b7c1b23e",
        "server": "65535",
        "farm": 66,
        "title": "[Zombie Kittens] Becca Boo Dress - Floral - Kitty Bonus Design",
        "ispublic": 1,
        "isfriend": 0,
        "isfamily": 0
      },
      {
        "id": "51284758634",
        "owner": "32895996@N02",
        "secret": "df577f3ef7",
        "server": "65535",
        "farm": 66,
        "title": "[Zombie Kittens] Becca Boo Dress - Floral purple",
        "ispublic": 1,
        "isfriend": 0,
        "isfamily": 0
      },
      {
        "id": "51284209713",
        "owner": "32895996@N02",
        "secret": "76fb53db9a",
        "server": "65535",
        "farm": 66,
        "title": "[Zombie Kittens] Becca Boo Dress - Floral pink",
        "ispublic": 1,
        "isfriend": 0,
        "isfamily": 0
      },
      {
        "id": "51283288192",
        "owner": "32895996@N02",
        "secret": "022b3c886e",
        "server": "65535",
        "farm": 66,
        "title": "[Zombie Kittens] Becca Boo Dress - Floral red",
        "ispublic": 1,
        "isfriend": 0,
        "isfamily": 0
      },
      {
        "id": "51284208313",
        "owner": "32895996@N02",
        "secret": "de1387db58",
        "server": "65535",
        "farm": 66,
        "title": "Inner Demon",
        "ispublic": 1,
        "isfriend": 0,
        "isfamily": 0
      },
      {
        "id": "51284026171",
        "owner": "42097321@N00",
        "secret": "fe2004a83c",
        "server": "65535",
        "farm": 66,
        "title": "Zelda discovered Ellie\u2019s feet today, so I fed Ellie treats and praised her for a positive kitten interaction. Then Zelda started chewing Ellie\u2019s feet and I quickly removed her, and everyone got lots of treats. \ud83d\ude05",
        "ispublic": 1,
        "isfriend": 0,
        "isfamily": 0
      },
      {
        "id": "51284016071",
        "owner": "9814014@N04",
        "secret": "982379165d",
        "server": "65535",
        "farm": 66,
        "title": "Delilah & Brad 5 Gen. Test Mating for Kittens",
        "ispublic": 1,
        "isfriend": 0,
        "isfamily": 0
      },
      {
        "id": "51284727299",
        "owner": "192044876@N03",
        "secret": "47cc4d7b9a",
        "server": "65535",
        "farm": 66,
        "title": "bunny, pauline and me",
        "ispublic": 1,
        "isfriend": 0,
        "isfamily": 0
      },
      {
        "id": "51283253272",
        "owner": "32895996@N02",
        "secret": "cec798402b",
        "server": "65535",
        "farm": 66,
        "title": "[Zombie Kittens] Penny Rose Cami - Spellbound - Amethyst-Gold Stars",
        "ispublic": 1,
        "isfriend": 0,
        "isfamily": 0
      },
      {
        "id": "51284174773",
        "owner": "32895996@N02",
        "secret": "2127c9f356",
        "server": "65535",
        "farm": 66,
        "title": "[Zombie Kittens] Penny Rose Cami - Spellbound - Floral",
        "ispublic": 1,
        "isfriend": 0,
        "isfamily": 0
      },
      {
        "id": "51284170593",
        "owner": "32895996@N02",
        "secret": "30ba4a5033",
        "server": "65535",
        "farm": 66,
        "title": "[Zombie Kittens] Penny Rose Cami - Black Is My Happy Color - BIMHC",
        "ispublic": 1,
        "isfriend": 0,
        "isfamily": 0
      },
      {
        "id": "51284169868",
        "owner": "32895996@N02",
        "secret": "0787c18487",
        "server": "65535",
        "farm": 66,
        "title": "[Zombie Kittens] Penny Rose Cami - Spellbound - Purple Moon",
        "ispublic": 1,
        "isfriend": 0,
        "isfamily": 0
      },
      {
        "id": "51285272251",
        "owner": "75432915@N02",
        "secret": "9fb3063cae",
        "server": "65535",
        "farm": 66,
        "title": "Sirius Black : Kitten : Cat Portrait",
        "ispublic": 1,
        "isfriend": 0,
        "isfamily": 0
      },
      {
        "id": "51283322942",
        "owner": "193017604@N03",
        "secret": "7a192562f8",
        "server": "65535",
        "farm": 66,
        "title": "20210625_151527",
        "ispublic": 1,
        "isfriend": 0,
        "isfamily": 0
      },
      {
        "id": "51284793884",
        "owner": "193017604@N03",
        "secret": "0e3a711497",
        "server": "65535",
        "farm": 66,
        "title": "20210625_151613",
        "ispublic": 1,
        "isfriend": 0,
        "isfamily": 0
      },
      {
        "id": "51285047365",
        "owner": "10675410@N08",
        "secret": "5ec1439b98",
        "server": "65535",
        "farm": 66,
        "title": "Ginger Snap",
        "ispublic": 1,
        "isfriend": 0,
        "isfamily": 0
      }
    ]
  },
  "stat": "ok"
}